{
  "https://github.com/MrRio/jsPDF.git": {
    "1.3.4": "1.3.4"
  },
  "https://github.com/components/handlebars.js.git": {
    "4.0.5": "4.0.5"
  },
  "https://github.com/jquery/jquery-dist.git": {
    "3.2.1": "77d2a51d0520d2ee44173afdf4e40a9201f5964e"
  },
  "https://github.com/lodash/lodash.git": {
    "4.17.4": "e31a059367a827da961ac3324bbfd35b084efb62"
  },
  "https://github.com/moment/moment.git": {
    "2.18.1": "2.18.1"
  }
}